rtl/perip/ahb_spi/ahb_spi_tb.vcd
$date
	Fri Oct 14 20:47:46 2022
$end
$version
	Icarus Verilog
$end
$timescale
	1s
$end
$scope module ahb_spi_tb $end
$scope module u_ahb_spi $end
$var wire 32 ! haddr_i [31:0] $end
$var wire 3 " hburst_i [2:0] $end
$var wire 1 # hclk $end
$var wire 32 $ hrdata_o [31:0] $end
$var wire 1 % hready_i $end
$var wire 1 & hreadyout_o $end
$var wire 1 ' hresetn $end
$var wire 1 ( hresp_o $end
$var wire 1 ) hsel_i $end
$var wire 3 * hsize_i [2:0] $end
$var wire 2 + htrans_i [1:0] $end
$var wire 32 , hwdata_i [31:0] $end
$var wire 1 - hwrite_i $end
$var wire 1 . rf_re $end
$var wire 1 / spi_cs $end
$var wire 1 0 spi_miso $end
$var wire 1 1 spi_read $end
$var wire 1 2 spi_reg_read $end
$var wire 1 3 spi_reg_write $end
$var wire 1 4 spi_write $end
$var wire 1 5 wf_we $end
$var wire 8 6 wf_wdata [7:0] $end
$var wire 8 7 wf_rdata [7:0] $end
$var wire 1 8 wf_full $end
$var wire 1 9 wf_empty $end
$var wire 2 : spi_nss [1:0] $end
$var wire 1 ; spi_mosi $end
$var wire 4 < spi_div [3:0] $end
$var wire 8 = rf_rdata [7:0] $end
$var wire 1 > rf_full $end
$var wire 1 ? rf_empty $end
$var wire 1 @ en $end
$var wire 1 A CPOL $end
$var wire 1 B CPHA $end
$var reg 1 C done $end
$var reg 32 D haddr_r [31:0] $end
$var reg 3 E hburst_r [2:0] $end
$var reg 32 F hrdata_r [31:0] $end
$var reg 3 G hsize_r [2:0] $end
$var reg 2 H htrans_r [1:0] $end
$var reg 1 I hwrite_r $end
$var reg 2 J next_state [1:0] $end
$var reg 8 K rf_wdata [7:0] $end
$var reg 1 L rf_we $end
$var reg 1 M spi_clk $end
$var reg 4 N spi_cnt [3:0] $end
$var reg 4 O spi_count [3:0] $end
$var reg 8 P spi_ctrl [7:0] $end
$var reg 1 Q spi_mosi_CPHA $end
$var reg 8 R spi_rdata [7:0] $end
$var reg 8 S spi_wdata [7:0] $end
$var reg 1 T start $end
$var reg 2 U state [1:0] $end
$var reg 1 V wf_re $end
$scope module r_fifo $end
$var wire 1 # clk $end
$var wire 8 W rdata_o [7:0] $end
$var wire 1 . ren_i $end
$var wire 1 ' rst_n $end
$var wire 8 X wdata_i [7:0] $end
$var wire 1 L wen_i $end
$var wire 5 Y waddr [4:0] $end
$var wire 5 Z raddr [4:0] $end
$var wire 1 > full_o $end
$var wire 1 ? empty_o $end
$var reg 6 [ rcntr [5:0] $end
$var reg 6 \ wcntr [5:0] $end
$upscope $end
$scope module w_fifo $end
$var wire 1 # clk $end
$var wire 8 ] rdata_o [7:0] $end
$var wire 1 V ren_i $end
$var wire 1 ' rst_n $end
$var wire 8 ^ wdata_i [7:0] $end
$var wire 1 5 wen_i $end
$var wire 5 _ waddr [4:0] $end
$var wire 5 ` raddr [4:0] $end
$var wire 1 8 full_o $end
$var wire 1 9 empty_o $end
$var reg 6 a rcntr [5:0] $end
$var reg 6 b wcntr [5:0] $end
$upscope $end
$upscope $end
$upscope $end
$enddefinitions $end
#0
$dumpvars
b0 b
b0 a
b0 `
b0 _
b0 ^
bx ]
b0 \
b0 [
b0 Z
b0 Y
b0 X
bx W
0V
b0 U
0T
b0 S
b0 R
0Q
b0 P
b0 O
b0 N
xM
0L
b0 K
b0 J
0I
b0 H
b0 G
b0 F
b0 E
b0 D
1C
0B
0A
0@
1?
0>
bx =
b0 <
0;
b11 :
19
08
bx 7
b0 6
05
04
03
02
01
00
0/
0.
0-
b0 ,
b0 +
b0 *
0)
0(
0'
1&
1%
b0 $
0#
b0 "
b0 !
$end
#10
0M
1'
1#
#20
0#
#30
1#
#40
0#
#50
b1 J
b100 !
b10 +
b10 *
1-
1)
1#
#60
0#
#70
13
1/
b0 J
b100111 6
b100111 ^
b100 D
b10 H
b10 G
1I
b1 U
b0 !
b100111 ,
1#
#80
0#
#90
b0 :
14
03
b1 <
1@
1A
1B
b1 J
b1101011 6
b1101011 ^
b100111 P
b0 U
b0 D
b1101011 ,
1#
#100
0#
#110
15
b0 J
b1 U
1M
1#
#120
0#
#130
05
b1 J
b1 _
b10100011 6
b10100011 ^
b0 U
09
b1 b
b1101011 7
b1101011 ]
b10100011 ,
1#
#140
0#
#150
15
b0 J
b1 U
1V
0C
1#
#160
0#
#170
04
05
0/
b10100011 7
b10100011 ]
b1 `
b10 _
b1101011 S
1T
0V
b0 U
b1 a
b10 b
0)
1#
#180
0#
#190
b0 H
b0 G
0I
0M
b1 N
b11010110 S
10
1#
#200
0#
#210
b1 R
b10 N
1M
1#
#220
0#
#230
1;
0M
b11 N
1Q
b10101100 S
00
1#
#240
0#
#250
b10 R
b100 N
1M
1#
#260
0#
#270
0M
b101 N
b1011000 S
10
1#
#280
0#
#290
b101 R
b110 N
1M
1#
#300
0#
#310
0;
0M
b111 N
0Q
b10110000 S
00
1#
#320
0#
#330
b1010 R
b1000 N
1M
1#
#340
0#
#350
1;
0M
b1001 N
1Q
b1100000 S
10
1#
#360
0#
#370
b10101 R
b1010 N
1M
1#
#380
0#
#390
0;
0M
b1011 N
0Q
b11000000 S
00
1#
#400
0#
#410
b101010 R
b1100 N
1M
1#
#420
0#
#430
1;
0M
b1101 N
1Q
b10000000 S
10
1#
#440
0#
#450
b1010101 R
b1110 N
1M
1#
#460
0#
#470
0M
b1111 N
b0 S
00
1#
#480
0#
#490
b10101010 R
b0 N
1M
1C
1#
#500
0#
#510
1V
0T
0C
b10101010 K
b10101010 X
1L
1#
#520
0#
#530
b1 Y
bx 7
bx ]
b10 `
b0 K
b0 X
0L
b10100011 S
1T
0V
0?
b1 \
19
b10 a
b10101010 =
b10101010 W
1#
#540
0#
#550
0M
b1 N
b1000110 S
1#
#560
0#
#570
b1010100 R
b10 N
1M
1#
#580
0#
#590
0;
0M
b11 N
0Q
b10001100 S
1#
#600
0#
#610
b10101000 R
b100 N
1M
1#
#620
0#
#630
1;
0M
b101 N
1Q
b11000 S
1#
#640
0#
#650
b1010000 R
b110 N
1M
1#
#660
0#
#670
0;
0M
b111 N
0Q
b110000 S
1#
#680
0#
#690
b10100000 R
b1000 N
1M
1#
#700
0#
#710
0M
b1001 N
b1100000 S
1#
#720
0#
#730
b1000000 R
b1010 N
1M
1#
#740
0#
#750
0M
b1011 N
b11000000 S
1#
#760
0#
#770
b10000000 R
b1100 N
1M
1#
#780
0#
#790
1;
0M
b1101 N
1Q
b10000000 S
1#
#800
0#
#810
b0 R
b1110 N
1M
1#
#820
0#
#830
0M
b1111 N
b0 S
1#
#840
0#
#850
b0 N
1M
1C
1#
#860
0#
#870
0T
1L
1#
#880
0#
#890
b10 Y
0L
b10 \
1#
