rtl/perip/ahb_spi/ahb_spi_tb.vcd
$date
	Wed Oct 12 22:29:27 2022
$end
$version
	Icarus Verilog
$end
$timescale
	1s
$end
$scope module ahb_spi_tb $end
$scope module u_ahb_spi $end
$var wire 32 ! haddr_i [31:0] $end
$var wire 3 " hburst_i [2:0] $end
$var wire 1 # hclk $end
$var wire 32 $ hrdata_o [31:0] $end
$var wire 1 % hready_i $end
$var wire 1 & hreadyout_o $end
$var wire 1 ' hresetn $end
$var wire 1 ( hresp_o $end
$var wire 1 ) hsel_i $end
$var wire 3 * hsize_i [2:0] $end
$var wire 2 + htrans_i [1:0] $end
$var wire 32 , hwdata_i [31:0] $end
$var wire 1 - hwrite_i $end
$var wire 1 . rf_re $end
$var wire 1 / spi_cs $end
$var wire 1 0 spi_miso $end
$var wire 1 1 spi_read $end
$var wire 1 2 spi_reg_read $end
$var wire 1 3 spi_reg_write $end
$var wire 1 4 spi_write $end
$var wire 8 5 wf_rdata [7:0] $end
$var wire 1 6 wf_full $end
$var wire 1 7 wf_empty $end
$var wire 2 8 spi_nss [1:0] $end
$var wire 1 9 spi_mosi $end
$var wire 4 : spi_div [3:0] $end
$var wire 8 ; rf_rdata [7:0] $end
$var wire 1 < rf_full $end
$var wire 1 = rf_empty $end
$var wire 1 > en $end
$var wire 1 ? CPOL $end
$var wire 1 @ CPHA $end
$var reg 1 A done $end
$var reg 32 B haddr_r [31:0] $end
$var reg 3 C hburst_r [2:0] $end
$var reg 32 D hrdata_r [31:0] $end
$var reg 3 E hsize_r [2:0] $end
$var reg 2 F htrans_r [1:0] $end
$var reg 1 G hwrite_r $end
$var reg 3 H next_state [2:0] $end
$var reg 8 I rf_wdata [7:0] $end
$var reg 1 J rf_we $end
$var reg 1 K spi_clk $end
$var reg 4 L spi_cnt [3:0] $end
$var reg 4 M spi_count [3:0] $end
$var reg 8 N spi_ctrl [7:0] $end
$var reg 1 O spi_mosi_CPHA $end
$var reg 8 P spi_rdata [7:0] $end
$var reg 8 Q spi_wdata [7:0] $end
$var reg 1 R start $end
$var reg 3 S state [2:0] $end
$var reg 1 T wf_re $end
$var reg 8 U wf_wdata [7:0] $end
$var reg 1 V wf_we $end
$scope module r_fifo $end
$var wire 1 # clk $end
$var wire 8 W rdata_o [7:0] $end
$var wire 1 . ren_i $end
$var wire 1 ' rst_n $end
$var wire 8 X wdata_i [7:0] $end
$var wire 1 J wen_i $end
$var wire 5 Y waddr [4:0] $end
$var wire 5 Z raddr [4:0] $end
$var wire 1 < full_o $end
$var wire 1 = empty_o $end
$var reg 6 [ rcntr [5:0] $end
$var reg 6 \ wcntr [5:0] $end
$upscope $end
$scope module w_fifo $end
$var wire 1 # clk $end
$var wire 8 ] rdata_o [7:0] $end
$var wire 1 T ren_i $end
$var wire 1 ' rst_n $end
$var wire 8 ^ wdata_i [7:0] $end
$var wire 1 V wen_i $end
$var wire 5 _ waddr [4:0] $end
$var wire 5 ` raddr [4:0] $end
$var wire 1 6 full_o $end
$var wire 1 7 empty_o $end
$var reg 6 a rcntr [5:0] $end
$var reg 6 b wcntr [5:0] $end
$upscope $end
$upscope $end
$upscope $end
$enddefinitions $end
#0
$dumpvars
b0 b
b0 a
b0 `
b0 _
b0 ^
bx ]
b0 \
b0 [
b0 Z
b0 Y
b0 X
bx W
0V
b0 U
0T
b0 S
0R
b0 Q
b0 P
0O
b0 N
b0 M
b0 L
xK
0J
b0 I
b0 H
0G
b0 F
b0 E
b0 D
b0 C
b0 B
1A
0@
0?
0>
1=
0<
bx ;
b0 :
09
b11 8
17
06
bx 5
04
03
02
01
00
0/
0.
0-
b0 ,
b0 +
b0 *
0)
0(
0'
1&
1%
b0 $
0#
b0 "
b0 !
$end
#10
0K
1'
1#
#20
0#
#30
1#
#40
0#
#50
b1 H
b1 !
b10 +
b10 *
1-
1)
1#
#60
0#
#70
13
1/
b1 H
b1 B
b10 F
b10 E
1G
b1 S
b0 !
b100111 ,
1#
#80
0#
#90
0%
0&
b100 H
b0 8
14
03
b1 :
1>
1?
1@
b100111 N
b0 B
b1101011 ,
1#
#100
0#
#110
1%
1&
b1 H
b100 S
1V
b1101011 U
b1101011 ^
1K
1#
#120
0#
#130
0%
0&
b100 H
b1 _
0V
b0 U
b0 ^
b1 S
07
b1 b
b1101011 5
b1101011 ]
b10100011 ,
1#
#140
0#
#150
1%
1&
b1 H
b100 S
1V
b10100011 U
b10100011 ^
1T
0A
1#
#160
0#
#170
04
0/
b10100011 5
b10100011 ]
b1 `
b10 _
b0 H
b1101011 Q
1R
0T
0V
b0 U
b0 ^
b1 S
b1 a
b10 b
0)
1#
#180
0#
#190
b0 F
b0 E
0G
b0 S
0K
b1 L
b11010110 Q
10
1#
#200
0#
#210
b1 P
b10 L
1K
1#
#220
0#
#230
19
0K
b11 L
1O
b10101100 Q
00
1#
#240
0#
#250
b10 P
b100 L
1K
1#
#260
0#
#270
0K
b101 L
b1011000 Q
10
1#
#280
0#
#290
b101 P
b110 L
1K
1#
#300
0#
#310
09
0K
b111 L
0O
b10110000 Q
00
1#
#320
0#
#330
b1010 P
b1000 L
1K
1#
#340
0#
#350
19
0K
b1001 L
1O
b1100000 Q
10
1#
#360
0#
#370
b10101 P
b1010 L
1K
1#
#380
0#
#390
09
0K
b1011 L
0O
b11000000 Q
00
1#
#400
0#
#410
b101010 P
b1100 L
1K
1#
#420
0#
#430
19
0K
b1101 L
1O
b10000000 Q
10
1#
#440
0#
#450
b1010101 P
b1110 L
1K
1#
#460
0#
#470
0K
b1111 L
b0 Q
00
1#
#480
0#
#490
b10101010 P
b0 L
1K
1A
1#
#500
0#
#510
1T
0R
0A
b10101010 I
b10101010 X
1J
1#
#520
0#
#530
b1 Y
bx 5
bx ]
b10 `
b0 I
b0 X
0J
b10100011 Q
1R
0T
0=
b1 \
17
b10 a
b10101010 ;
b10101010 W
1#
#540
0#
#550
0K
b1 L
b1000110 Q
1#
#560
0#
#570
b1010100 P
b10 L
1K
1#
#580
0#
#590
09
0K
b11 L
0O
b10001100 Q
1#
#600
0#
#610
b10101000 P
b100 L
1K
1#
#620
0#
#630
19
0K
b101 L
1O
b11000 Q
1#
#640
0#
#650
b1010000 P
b110 L
1K
1#
#660
0#
#670
09
0K
b111 L
0O
b110000 Q
1#
#680
0#
#690
b10100000 P
b1000 L
1K
1#
#700
0#
#710
0K
b1001 L
b1100000 Q
1#
#720
0#
#730
b1000000 P
b1010 L
1K
1#
#740
0#
#750
0K
b1011 L
b11000000 Q
1#
#760
0#
#770
b10000000 P
b1100 L
1K
1#
#780
0#
#790
19
0K
b1101 L
1O
b10000000 Q
1#
#800
0#
#810
b0 P
b1110 L
1K
1#
#820
0#
#830
0K
b1111 L
b0 Q
1#
#840
0#
#850
b0 L
1K
1A
1#
#860
0#
#870
0R
1J
1#
#880
0#
#890
b10 Y
0J
b10 \
1#
