rtl/perip/ahb_spi/ahb_spi_tb.vcd
$date
	Wed Oct 12 16:44:22 2022
$end
$version
	Icarus Verilog
$end
$timescale
	1s
$end
$scope module ahb_spi_tb $end
$scope module u_ahb_spi $end
$var wire 32 ! haddr_i [31:0] $end
$var wire 3 " hburst_i [2:0] $end
$var wire 1 # hclk $end
$var wire 32 $ hrdata_o [31:0] $end
$var wire 1 % hready_i $end
$var wire 1 & hreadyout_o $end
$var wire 1 ' hresetn $end
$var wire 1 ( hresp_o $end
$var wire 1 ) hsel_i $end
$var wire 3 * hsize_i [2:0] $end
$var wire 2 + htrans_i [1:0] $end
$var wire 32 , hwdata_i [31:0] $end
$var wire 1 - hwrite_i $end
$var wire 1 . rf_re $end
$var wire 1 / spi_cs $end
$var wire 1 0 spi_miso $end
$var wire 1 1 spi_read $end
$var wire 1 2 spi_write $end
$var wire 8 3 wf_rdata [7:0] $end
$var wire 1 4 wf_full $end
$var wire 1 5 wf_empty $end
$var wire 2 6 spi_nss [1:0] $end
$var wire 1 7 spi_mosi $end
$var wire 4 8 spi_div [3:0] $end
$var wire 8 9 rf_rdata [7:0] $end
$var wire 1 : rf_full $end
$var wire 1 ; rf_empty $end
$var wire 1 < en $end
$var wire 1 = CPOL $end
$var wire 1 > CPHA $end
$var reg 1 ? done $end
$var reg 32 @ haddr_r [31:0] $end
$var reg 3 A hburst_r [2:0] $end
$var reg 32 B hrdata_r [31:0] $end
$var reg 3 C hsize_r [2:0] $end
$var reg 2 D htrans_r [1:0] $end
$var reg 1 E hwrite_r $end
$var reg 3 F next_state [2:0] $end
$var reg 8 G rf_wdata [7:0] $end
$var reg 1 H rf_we $end
$var reg 1 I spi_clk $end
$var reg 4 J spi_cnt [3:0] $end
$var reg 4 K spi_count [3:0] $end
$var reg 8 L spi_ctrl [7:0] $end
$var reg 1 M spi_mosi_CPHA $end
$var reg 8 N spi_rdata [7:0] $end
$var reg 8 O spi_wdata [7:0] $end
$var reg 1 P start $end
$var reg 3 Q state [2:0] $end
$var reg 1 R wf_re $end
$var reg 8 S wf_wdata [7:0] $end
$var reg 1 T wf_we $end
$scope module r_fifo $end
$var wire 1 # clk $end
$var wire 8 U rdata_o [7:0] $end
$var wire 1 . ren_i $end
$var wire 1 ' rst_n $end
$var wire 8 V wdata_i [7:0] $end
$var wire 1 H wen_i $end
$var wire 5 W waddr [4:0] $end
$var wire 5 X raddr [4:0] $end
$var wire 1 : full_o $end
$var wire 1 ; empty_o $end
$var reg 6 Y rcntr [5:0] $end
$var reg 6 Z wcntr [5:0] $end
$upscope $end
$scope module w_fifo $end
$var wire 1 # clk $end
$var wire 8 [ rdata_o [7:0] $end
$var wire 1 R ren_i $end
$var wire 1 ' rst_n $end
$var wire 8 \ wdata_i [7:0] $end
$var wire 1 T wen_i $end
$var wire 5 ] waddr [4:0] $end
$var wire 5 ^ raddr [4:0] $end
$var wire 1 4 full_o $end
$var wire 1 5 empty_o $end
$var reg 6 _ rcntr [5:0] $end
$var reg 6 ` wcntr [5:0] $end
$upscope $end
$upscope $end
$upscope $end
$enddefinitions $end
#0
$dumpvars
b0 `
b0 _
b0 ^
b0 ]
b0 \
bx [
b0 Z
b0 Y
b0 X
b0 W
b0 V
bx U
0T
b0 S
0R
b0 Q
0P
b0 O
b0 N
0M
b0 L
b0 K
b0 J
xI
0H
b0 G
b0 F
0E
b0 D
b0 C
b0 B
b0 A
b0 @
1?
0>
0=
0<
1;
0:
bx 9
b0 8
07
b11 6
15
04
bx 3
02
01
00
0/
0.
0-
b0 ,
b0 +
b0 *
0)
0(
0'
1&
1%
b0 $
0#
b0 "
b0 !
$end
#10
0I
1'
1#
#20
0#
#30
1#
#40
0#
#50
b1 F
b1 !
b10 +
b10 *
1-
1)
1#
#60
0#
#70
1/
b1 F
b1 @
b10 D
b10 C
1E
b1 Q
b0 !
b100111 ,
1#
#80
0#
#90
0%
0&
b100 F
b0 6
12
b1 8
1<
1=
1>
b100111 L
b0 @
b1101011 ,
1#
#100
0#
#110
1%
1&
b1 F
b100 Q
1T
b1101011 S
b1101011 \
1I
1#
#120
0#
#130
0%
0&
b100 F
b1 ]
0T
b0 S
b0 \
b1 Q
05
b1 `
b1101011 3
b1101011 [
b10100011 ,
1#
#140
0#
#150
1%
1&
b1 F
b100 Q
1T
b10100011 S
b10100011 \
1R
0?
1#
#160
0#
#170
02
0/
b10100011 3
b10100011 [
b1 ^
b10 ]
b0 F
b1101011 O
1P
0R
0T
b0 S
b0 \
b1 Q
b1 _
b10 `
0)
1#
#180
0#
#190
b0 D
b0 C
0E
b0 Q
0I
b1 J
b11010110 O
10
1#
#200
0#
#210
b1 N
b10 J
1I
1#
#220
0#
#230
17
0I
b11 J
1M
b10101100 O
00
1#
#240
0#
#250
b10 N
b100 J
1I
1#
#260
0#
#270
0I
b101 J
b1011000 O
10
1#
#280
0#
#290
b101 N
b110 J
1I
1#
#300
0#
#310
07
0I
b111 J
0M
b10110000 O
00
1#
#320
0#
#330
b1010 N
b1000 J
1I
1#
#340
0#
#350
17
0I
b1001 J
1M
b1100000 O
10
1#
#360
0#
#370
b10101 N
b1010 J
1I
1#
#380
0#
#390
07
0I
b1011 J
0M
b11000000 O
00
1#
#400
0#
#410
b101010 N
b1100 J
1I
1#
#420
0#
#430
17
0I
b1101 J
1M
b10000000 O
10
1#
#440
0#
#450
b1010101 N
b1110 J
1I
1#
#460
0#
#470
0I
b1111 J
b0 O
00
1#
#480
0#
#490
b10101010 N
b0 J
1I
1?
1#
#500
0#
#510
1R
0P
0?
b10101010 G
b10101010 V
1H
1#
#520
0#
#530
b1 W
bx 3
bx [
b10 ^
b0 G
b0 V
0H
b10100011 O
1P
0R
0;
b1 Z
15
b10 _
b10101010 9
b10101010 U
1#
#540
0#
#550
0I
b1 J
b1000110 O
1#
#560
0#
#570
b1010100 N
b10 J
1I
1#
#580
0#
#590
07
0I
b11 J
0M
b10001100 O
1#
#600
0#
#610
b10101000 N
b100 J
1I
1#
#620
0#
#630
17
0I
b101 J
1M
b11000 O
1#
#640
0#
#650
b1010000 N
b110 J
1I
1#
#660
0#
#670
07
0I
b111 J
0M
b110000 O
1#
#680
0#
#690
b10100000 N
b1000 J
1I
1#
#700
0#
#710
0I
b1001 J
b1100000 O
1#
#720
0#
#730
b1000000 N
b1010 J
1I
1#
#740
0#
#750
0I
b1011 J
b11000000 O
1#
#760
0#
#770
b10000000 N
b1100 J
1I
1#
#780
0#
#790
17
0I
b1101 J
1M
b10000000 O
1#
#800
0#
#810
b0 N
b1110 J
1I
1#
#820
0#
#830
0I
b1111 J
b0 O
1#
#840
0#
#850
b0 J
1I
1?
1#
#860
0#
#870
0P
1H
1#
#880
0#
#890
b10 W
0H
b10 Z
1#
