rtl/perip/ahb_spi/spi_tb.vcd
$date
	Mon Oct 10 15:32:47 2022
$end
$version
	Icarus Verilog
$end
$timescale
	1ns
$end
$scope module spi_tb $end
$scope module u_spi $end
$var wire 32 ! addr_i [31:0] $end
$var wire 1 " busy $end
$var wire 1 # clk $end
$var wire 32 $ data_i [31:0] $end
$var wire 1 % rst_n $end
$var wire 1 & spi_miso $end
$var wire 1 ' wf_full $end
$var wire 1 ( wf_empty $end
$var wire 8 ) wf_data_o [7:0] $end
$var wire 2 * spi_nss [1:0] $end
$var wire 1 + spi_mosi $end
$var wire 4 , spi_div [3:0] $end
$var wire 1 - rf_full $end
$var wire 1 . rf_empty $end
$var wire 8 / rf_data_o [7:0] $end
$var wire 1 0 en $end
$var wire 1 1 CPOL $end
$var wire 1 2 CPHA $end
$var reg 32 3 data_o [31:0] $end
$var reg 1 4 done $end
$var reg 8 5 rf_data_i [7:0] $end
$var reg 1 6 rf_re_i $end
$var reg 1 7 rf_we_i $end
$var reg 1 8 spi_clk $end
$var reg 4 9 spi_cnt [3:0] $end
$var reg 4 : spi_count [3:0] $end
$var reg 8 ; spi_ctrl [7:0] $end
$var reg 8 < spi_data_i [7:0] $end
$var reg 8 = spi_data_o [7:0] $end
$var reg 1 > spi_mosi_CPHA $end
$var reg 1 ? start $end
$var reg 1 @ vaild $end
$var reg 8 A wf_data_i [7:0] $end
$var reg 1 B wf_re_i $end
$var reg 1 C wf_we_i $end
$scope module r_fifo $end
$var wire 1 # clk $end
$var wire 8 D data_i [7:0] $end
$var wire 8 E data_o [7:0] $end
$var wire 1 . empty $end
$var wire 1 - full $end
$var wire 1 F re_i $end
$var wire 1 % rst_n $end
$var wire 1 7 we_i $end
$var wire 2 G w_point_1 [1:0] $end
$var reg 1 H flag $end
$var reg 2 I r_point [1:0] $end
$var reg 2 J w_point [1:0] $end
$upscope $end
$scope module w_fifo $end
$var wire 1 # clk $end
$var wire 8 K data_i [7:0] $end
$var wire 8 L data_o [7:0] $end
$var wire 1 ( empty $end
$var wire 1 ' full $end
$var wire 1 B re_i $end
$var wire 1 % rst_n $end
$var wire 1 M we_i $end
$var wire 2 N w_point_1 [1:0] $end
$var reg 1 O flag $end
$var reg 2 P r_point [1:0] $end
$var reg 2 Q w_point [1:0] $end
$upscope $end
$upscope $end
$upscope $end
$enddefinitions $end
#0
$dumpvars
bx Q
bx P
xO
bx N
xM
bx L
bx K
bx J
bx I
xH
bx G
xF
bx E
bx D
xC
xB
bx A
x@
x?
x>
bx =
bx <
bx ;
bx :
bx 9
x8
x7
x6
bx 5
x4
bx 3
x2
x1
x0
bx /
x.
x-
b0xxx ,
x+
bx *
bx )
x(
x'
0&
0%
b0 $
0#
x"
b0 !
$end
#10
b11 *
0+
1(
0"
0'
1.
0-
0F
0M
b0 ,
00
01
02
b1 N
b0 Q
b0 P
0O
b1 G
b0 J
b0 I
0H
06
0C
b0 A
b0 K
b0 ;
0@
b0 3
0B
0?
14
b0 :
b0 9
b0 =
0>
b0 <
b0 5
b0 D
07
1#
#20
0#
1%
#30
08
1#
#40
0#
#50
1#
#60
0#
#70
1#
#80
0#
#90
1#
#100
0#
#110
1#
#120
b100111 $
b1 !
0#
#130
b0 *
b1 ,
10
11
12
b100111 ;
1#
#140
0#
#150
18
1#
#160
0#
#170
1#
#180
0#
#190
1#
#200
0#
#210
1#
#220
0#
#230
1#
#240
b10100011 $
b10 !
0#
#250
1M
1C
b10100011 A
b10100011 K
1#
#260
b1101011 $
0#
#270
0(
b1101011 A
b1101011 K
b10 N
b1 Q
b10100011 )
b10100011 L
1#
#280
b0 !
0#
#290
0M
b11 N
b10 Q
0C
b0 A
b0 K
1B
04
1#
#300
0#
#310
b10100011 =
1?
0B
b1101011 )
b1101011 L
b1 P
1#
#320
0#
#330
1+
08
b1 9
1>
b1000110 =
1&
1#
#340
0#
#350
b1 <
b10 9
18
1#
#360
0#
#370
0+
08
b11 9
0>
b10001100 =
0&
1#
#380
0#
#390
b10 <
b100 9
18
1#
#400
0#
#410
1+
08
b101 9
1>
b11000 =
1&
1#
#420
0#
#430
b101 <
b110 9
18
1#
#440
0#
#450
0+
08
b111 9
0>
b110000 =
0&
1#
#460
0#
#470
b1010 <
b1000 9
18
1#
#480
0#
#490
08
b1001 9
b1100000 =
1&
1#
#500
0#
#510
b10101 <
b1010 9
18
1#
#520
0#
#530
08
b1011 9
b11000000 =
0&
1#
#540
0#
#550
b101010 <
b1100 9
18
1#
#560
0#
#570
1+
08
b1101 9
1>
b10000000 =
1&
1#
#580
0#
#590
b1010101 <
b1110 9
18
1#
#600
0#
#610
08
b1111 9
b0 =
0&
1#
#620
0#
#630
b10101010 <
b0 9
18
14
1#
#640
0#
#650
1B
0?
04
b10101010 5
b10101010 D
17
1#
#660
0#
#670
0.
1(
b0 5
b0 D
07
b1101011 =
1?
0B
b10 G
b1 J
b10101010 /
b10101010 E
bx )
bx L
b10 P
b11 !
1#
#680
0#
#690
1F
0+
16
08
b1 9
0>
b11010110 =
1#
#700
0#
#710
0F
1.
b1010100 <
b10 9
18
1@
b10101010 3
bx /
bx E
b1 I
b0 !
1#
#720
0#
#730
1+
06
0@
b0 3
08
b11 9
1>
b10101100 =
1#
#740
0#
#750
b10101000 <
b100 9
18
1#
#760
0#
#770
08
b101 9
b1011000 =
1#
#780
0#
#790
b1010000 <
b110 9
18
1#
#800
0#
#810
0+
08
b111 9
0>
b10110000 =
1#
#820
0#
#830
b10100000 <
b1000 9
18
1#
#840
0#
#850
1+
08
b1001 9
1>
b1100000 =
1#
#860
0#
#870
b1000000 <
b1010 9
18
1#
#880
0#
#890
0+
08
b1011 9
0>
b11000000 =
1#
#900
0#
#910
b10000000 <
b1100 9
18
1#
#920
0#
#930
1+
08
b1101 9
1>
b10000000 =
1#
#940
0#
#950
b0 <
b1110 9
18
1#
#960
0#
#970
08
b1111 9
b0 =
1#
#980
0#
#990
b0 9
18
14
1#
#1000
0#
#1010
0?
17
1#
#1020
0#
#1030
0.
07
b11 G
b10 J
b0 /
b0 E
1#
